{
 "actions": [],
 "autoname": "autoincrement",
 "creation": "2022-11-13 14:38:14.652348",
 "default_view": "List",
 "doctype": "DocType",
 "editable_grid": 1,
 "engine": "InnoDB",
 "field_order": [
  "type",
  "label",
  "start_at",
  "end_at",
  "venue",
  "contact_person",
  "status",
  "survey",
  "collection_segment",
  "participant",
  "agenda",
  "collection_participant"
 ],
 "fields": [
  {
   "fieldname": "label",
   "fieldtype": "Data",
   "label": "Label",
   "reqd": 1,
   "unique": 1
  },
  {
   "fieldname": "start_at",
   "fieldtype": "Datetime",
   "label": "Start at",
   "reqd": 1
  },
  {
   "fieldname": "end_at",
   "fieldtype": "Datetime",
   "label": "End at"
  },
  {
   "depends_on": "eval:[\"Mid-Year Evaluation\",\"End-Year Evaluation\"].includes(doc.type)",
   "fieldname": "survey",
   "fieldtype": "Link",
   "label": "Survey",
   "options": "Survey"
  },
  {
   "fieldname": "collection_segment",
   "fieldtype": "Table",
   "label": "Segment",
   "options": "Collection User Segment"
  },
  {
   "fieldname": "participant",
   "fieldtype": "Table",
   "is_virtual": 1,
   "label": "Participant",
   "options": "Collection User"
  },
  {
   "fieldname": "type",
   "fieldtype": "Select",
   "in_list_view": 1,
   "label": "Type",
   "options": "\nMid-Year Evaluation\nEnd-Year Evaluation\nOnboard",
   "reqd": 1
  },
  {
   "fieldname": "agenda",
   "fieldtype": "Table",
   "label": "Agenda",
   "options": "Agenda"
  },
  {
   "fieldname": "contact_person",
   "fieldtype": "Link",
   "label": "Contact Person",
   "options": "Employee"
  },
  {
   "fieldname": "collection_participant",
   "fieldtype": "Table",
   "label": "Participants",
   "options": "Collection Employee"
  },
  {
   "default": "Draft",
   "fieldname": "status",
   "fieldtype": "Select",
   "label": "Status",
   "options": "Draft\nOpen\nClose",
   "reqd": 1
  },
  {
   "fieldname": "venue",
   "fieldtype": "Data",
   "label": "Venue"
  }
 ],
 "links": [],
 "modified": "2022-12-06 13:41:14.405311",
 "modified_by": "Administrator",
 "module": "HCMS - Survey",
 "name": "Events",
 "naming_rule": "Autoincrement",
 "owner": "Administrator",
 "permissions": [
  {
   "create": 1,
   "delete": 1,
   "email": 1,
   "export": 1,
   "print": 1,
   "read": 1,
   "report": 1,
   "role": "System Manager",
   "share": 1,
   "write": 1
  }
 ],
 "sort_field": "modified",
 "sort_order": "DESC",
 "states": [],
 "title_field": "label"
}