{
 "actions": [],
 "autoname": "autoincrement",
 "creation": "2022-10-12 01:53:35.603605",
 "doctype": "DocType",
 "editable_grid": 1,
 "engine": "InnoDB",
 "field_order": [
  "metadata_answer"
 ],
 "fields": [
  {
   "fieldname": "metadata_answer",
   "fieldtype": "Link",
   "in_list_view": 1,
   "label": "Metadata Answer",
   "options": "Metadata Answer",
   "reqd": 1
  }
 ],
 "index_web_pages_for_search": 1,
 "istable": 1,
 "links": [],
 "modified": "2022-10-17 10:40:43.738922",
 "modified_by": "Administrator",
 "module": "HCMS - Survey",
 "name": "Collection Metadata Answer",
 "naming_rule": "Autoincrement",
 "owner": "Administrator",
 "permissions": [],
 "sort_field": "modified",
 "sort_order": "DESC",
 "states": []
}