{
 "actions": [],
 "allow_import": 1,
 "autoname": "autoincrement",
 "creation": "2022-10-11 10:28:57.003187",
 "doctype": "DocType",
 "editable_grid": 1,
 "engine": "InnoDB",
 "field_order": [
  "label",
  "description",
  "type",
  "start",
  "step",
  "end",
  "collection_question"
 ],
 "fields": [
  {
   "fieldname": "label",
   "fieldtype": "Data",
   "label": "Label"
  },
  {
   "fieldname": "description",
   "fieldtype": "Data",
   "label": "Description"
  },
  {
   "fieldname": "type",
   "fieldtype": "Select",
   "label": "Type",
   "options": "Text\nRadio\nCheckbox\nRange\nDatetime\nNumber\nQuestion"
  },
  {
   "depends_on": "eval:doc.type == 'Range'",
   "fieldname": "start",
   "fieldtype": "Int",
   "label": "Start"
  },
  {
   "depends_on": "eval:doc.type == 'Range'",
   "fieldname": "step",
   "fieldtype": "Int",
   "label": "Step"
  },
  {
   "depends_on": "eval:doc.type == 'Range'",
   "fieldname": "end",
   "fieldtype": "Int",
   "label": "End"
  },
  {
   "fieldname": "collection_question",
   "fieldtype": "Table",
   "options": "Collection Question"
  }
 ],
 "index_web_pages_for_search": 1,
 "links": [],
 "modified": "2022-10-21 08:21:30.870056",
 "modified_by": "Administrator",
 "module": "HCMS - Survey",
 "name": "Metadata Answer",
 "naming_rule": "Autoincrement",
 "owner": "Administrator",
 "permissions": [
  {
   "create": 1,
   "delete": 1,
   "email": 1,
   "export": 1,
   "print": 1,
   "read": 1,
   "report": 1,
   "role": "System Manager",
   "share": 1,
   "write": 1
  }
 ],
 "quick_entry": 1,
 "show_title_field_in_link": 1,
 "sort_field": "modified",
 "sort_order": "DESC",
 "states": [],
 "title_field": "label"
}