{
 "actions": [],
 "allow_import": 1,
 "autoname": "autoincrement",
 "creation": "2022-10-13 08:38:51.433099",
 "doctype": "DocType",
 "editable_grid": 1,
 "engine": "InnoDB",
 "field_order": [
  "label",
  "description",
  "collection_survey_element",
  "amended_from"
 ],
 "fields": [
  {
   "fieldname": "label",
   "fieldtype": "Data",
   "label": "Label"
  },
  {
   "fieldname": "collection_survey_element",
   "fieldtype": "Table",
   "label": "Collection Survey Element",
   "options": "Collection Survey Element"
  },
  {
   "fieldname": "description",
   "fieldtype": "Data",
   "label": "Description"
  },
  {
   "fieldname": "amended_from",
   "fieldtype": "Link",
   "label": "Amended From",
   "no_copy": 1,
   "options": "Survey",
   "print_hide": 1,
   "read_only": 1
  }
 ],
 "index_web_pages_for_search": 1,
 "is_submittable": 1,
 "links": [],
 "modified": "2022-11-23 03:13:59.151481",
 "modified_by": "Administrator",
 "module": "HCMS - Survey",
 "name": "Survey",
 "naming_rule": "Autoincrement",
 "owner": "Administrator",
 "permissions": [
  {
   "create": 1,
   "delete": 1,
   "email": 1,
   "export": 1,
   "print": 1,
   "read": 1,
   "report": 1,
   "role": "System Manager",
   "share": 1,
   "write": 1
  }
 ],
 "show_title_field_in_link": 1,
 "sort_field": "modified",
 "sort_order": "DESC",
 "states": [],
 "title_field": "label"
}