{
 "actions": [],
 "autoname": "prompt",
 "creation": "2022-12-05 16:35:55.320807",
 "default_view": "List",
 "doctype": "DocType",
 "editable_grid": 1,
 "engine": "InnoDB",
 "field_order": [
  "type",
  "option",
  "subject",
  "file",
  "is_apply_expat"
 ],
 "fields": [
  {
   "fieldname": "type",
   "fieldtype": "Select",
   "in_list_view": 1,
   "label": "Type",
   "options": "\nEmail Event\nContract",
   "reqd": 1
  },
  {
   "depends_on": "eval:doc.type.includes(\"Email\")",
   "fieldname": "subject",
   "fieldtype": "Data",
   "label": "Subject"
  },
  {
   "fieldname": "file",
   "fieldtype": "Attach",
   "in_list_view": 1,
   "label": "File",
   "reqd": 1
  },
  {
   "fieldname": "option",
   "fieldtype": "Select",
   "label": "Option"
  },
  {
   "default": "0",
   "depends_on": "eval:doc.type == 'Contract'",
   "fieldname": "is_apply_expat",
   "fieldtype": "Check",
   "label": "For expat only"
  }
 ],
 "index_web_pages_for_search": 1,
 "links": [],
 "modified": "2022-12-13 10:35:32.579810",
 "modified_by": "Administrator",
 "module": "HCMS - Survey",
 "name": "Template",
 "naming_rule": "Set by user",
 "owner": "Administrator",
 "permissions": [
  {
   "create": 1,
   "delete": 1,
   "email": 1,
   "export": 1,
   "print": 1,
   "read": 1,
   "report": 1,
   "role": "System Manager",
   "share": 1,
   "write": 1
  }
 ],
 "sort_field": "modified",
 "sort_order": "DESC",
 "states": []
}