<svg width="379" height="22" viewBox="0 0 379 22" fill="none" xmlns="http://www.w3.org/2000/svg">
<g clip-path="url(#clip0_816_2249)">
<path d="M206.391 22L189.499 0L172.614 22L189.499 2.61069L206.391 22Z" fill="#CC9324"/>
<path d="M216.06 21.9995L206.057 8.9707L196.055 21.9995L206.057 10.5162L216.06 21.9995Z" fill="#CC9324"/>
<path d="M182.945 21.9995L172.942 8.9707L162.939 21.9995L172.942 10.5162L182.945 21.9995Z" fill="#CC9324"/>
<path d="M0 19.1672L39.2568 18.6746L78.5135 18.3052C91.5991 18.1697 104.685 17.8988 117.77 18.0589C124.313 18.1451 130.856 18.2374 137.399 18.4345L147.216 18.73C150.49 18.8778 153.759 18.9825 157.033 19.1672V19.4135C153.759 19.6044 150.49 19.7029 147.216 19.8507L137.399 20.1462C130.856 20.3432 124.313 20.4294 117.77 20.5218C104.685 20.6819 91.5991 20.411 78.5135 20.2755L39.2568 19.9061L0 19.4135V19.1672Z" fill="#CC9324"/>
<path d="M379 19.4135L339.743 19.9061L300.486 20.2755C287.401 20.411 274.315 20.6819 261.23 20.5218C254.687 20.4356 248.144 20.3432 241.601 20.1462L231.784 19.8507C228.51 19.7029 225.241 19.5982 221.967 19.4135V19.1672C225.241 18.9763 228.51 18.8778 231.784 18.73L241.601 18.4345C248.144 18.2374 254.687 18.1512 261.23 18.0589C274.315 17.8988 287.401 18.1697 300.486 18.3052L339.743 18.6746L379 19.1672V19.4135Z" fill="#CC9324"/>
</g>
<defs>
<clipPath id="clip0_816_2249">
<rect width="379" height="22" fill="white"/>
</clipPath>
</defs>
</svg>
